iter	MultiClass
0	1.05059114
1	1.005503241
2	0.9615514963
3	0.9191964123
4	0.8818300878
5	0.8439199959
6	0.8121675993
7	0.7797901852
8	0.7504687236
9	0.7213635963
10	0.6938588744
11	0.6682267082
12	0.6442120446
13	0.6215632008
14	0.6002350411
15	0.5802409995
16	0.5614307476
17	0.5425363032
18	0.5245126282
19	0.5063374155
20	0.4898005159
21	0.4740976192
22	0.4592530282
23	0.4438595775
24	0.4303462566
25	0.4165786162
26	0.4044095194
27	0.3920865575
28	0.3797825524
29	0.3685666674
30	0.3577387719
31	0.3467744232
32	0.3363483138
33	0.3267687904
34	0.317988055
35	0.3087726238
36	0.2998071134
37	0.2911356811
38	0.2830325831
39	0.275140348
40	0.2681082019
41	0.261268599
42	0.254340699
43	0.247648956
44	0.2408290147
45	0.2346952527
46	0.2286701149
47	0.2227794127
48	0.21668128
49	0.2109049504
50	0.2053162593
51	0.1997096135
52	0.1944704226
53	0.1895150149
54	0.184517311
55	0.1798645793
56	0.1752383847
57	0.1709171639
58	0.1667804538
59	0.1624453158
60	0.1584594685
61	0.154508719
62	0.1513043208
63	0.1477145737
64	0.1442707733
65	0.1407506484
66	0.1376134055
67	0.1346199043
68	0.1316345464
69	0.1288375102
70	0.1258442607
71	0.12276884
72	0.1201514135
73	0.1175433785
74	0.1148518421
75	0.1124929474
76	0.1099374902
77	0.1077774597
78	0.1052912896
79	0.103056164
80	0.1008311235
81	0.09877570076
82	0.09680540401
83	0.09484869196
84	0.09268760772
85	0.09092554528
86	0.08910328358
87	0.08721250119
88	0.08539859924
89	0.08352957926
90	0.0820646848
91	0.08048033616
92	0.07897709518
93	0.07738853066
94	0.07579269439
95	0.07447831048
96	0.07313151627
97	0.07173475787
98	0.07042222116
99	0.0691318973
100	0.06783839906
101	0.06657198348
102	0.0653725377
103	0.06433866249
104	0.06321781825
105	0.06197456735
106	0.06109719787
107	0.05985419501
108	0.05889427454
109	0.05792482016
110	0.05717078202
111	0.05617929577
112	0.05521630815
113	0.05436558234
114	0.05342650303
115	0.05265345367
116	0.05172607804
117	0.05081407925
118	0.05008173616
119	0.04937505278
120	0.04860600501
121	0.04784310974
122	0.04709757074
123	0.04646953521
124	0.04577981779
125	0.04513039159
126	0.04456372905
127	0.04395765797
128	0.04319355517
129	0.04250240354
130	0.04197528251
131	0.04150392453
132	0.04102243573
133	0.0403952605
134	0.03976781199
135	0.03925197701
136	0.03876895778
137	0.0382442346
138	0.0377917482
139	0.03723856819
140	0.03680146406
141	0.03628384764
142	0.03582306171
143	0.03540849411
144	0.03478345805
145	0.03432895065
146	0.03389237173
147	0.03337143993
148	0.032972436
149	0.03245485858
150	0.0321130475
151	0.03170556643
152	0.03126764738
153	0.03087187212
154	0.03049771822
155	0.03011992851
156	0.02973803764
157	0.02935140586
158	0.02896408985
159	0.02868456453
160	0.02832114262
161	0.02796393727
162	0.02766039462
163	0.02726501461
164	0.02695928131
165	0.02661753591
166	0.02629883477
167	0.02599331792
168	0.02572848191
169	0.02550414572
170	0.02518774353
171	0.02491236294
172	0.02466736684
173	0.02438717165
174	0.02414731446
175	0.02383841438
176	0.02361123873
177	0.02341525803
178	0.02317006619
179	0.02294615255
180	0.02271658591
181	0.02241914368
182	0.02219159546
183	0.02190782326
184	0.02165263512
185	0.02143572323
186	0.02124889139
187	0.02100290146
188	0.0208194339
189	0.02061414219
190	0.02043669398
191	0.02027461175
192	0.02011937674
193	0.01990103777
194	0.01971241373
195	0.0194932892
196	0.01932057628
197	0.01912197666
198	0.01894589619
199	0.0187798403
200	0.01857813159
201	0.01840723829
202	0.01824411492
203	0.01810283302
204	0.01795970453
205	0.01778290325
206	0.01764788489
207	0.01753295333
208	0.01736459132
209	0.01722511303
210	0.01709921274
211	0.0169642096
212	0.01684692027
213	0.01671431161
214	0.01657016655
215	0.01646372348
216	0.0163234295
217	0.01617018049
218	0.01608167994
219	0.0159714233
220	0.01587707625
221	0.01576764035
222	0.01561448549
223	0.01547739016
224	0.01535750051
225	0.01525319629
226	0.01516455137
227	0.01504314676
228	0.01491059062
229	0.01478837052
230	0.01471060691
231	0.01459227489
232	0.01447988725
233	0.01436874891
234	0.01423739309
235	0.01412302943
236	0.01402208383
237	0.0139526056
238	0.01385570918
239	0.01376137693
240	0.01367300537
241	0.01357371104
242	0.01347347395
243	0.01337169392
244	0.01326293363
245	0.01313075903
246	0.01303738555
247	0.01295273783
248	0.01286620229
249	0.01277486145
250	0.01269572291
251	0.01263590678
252	0.01253981706
253	0.01246887279
254	0.01238977303
255	0.01230386233
256	0.01221839513
257	0.01213047904
258	0.01202808926
259	0.01194938076
260	0.01186144052
261	0.01179978321
262	0.0117226582
263	0.01162115662
264	0.01155372881
265	0.01148494282
266	0.01141398075
267	0.01136642455
268	0.01129180331
269	0.01122405959
270	0.01116208183
271	0.01109010985
272	0.01103964142
273	0.0109786623
274	0.01092323624
275	0.01084316942
276	0.01078022356
277	0.01072650251
278	0.01064732548
279	0.01058931378
280	0.01053709685
281	0.01045771672
282	0.01040269885
283	0.01030735241
284	0.01024028078
285	0.0101759484
286	0.01011140318
287	0.01006426667
288	0.01000343223
289	0.009966467948
290	0.009911855469
291	0.009853178589
292	0.009799423859
293	0.009737957833
294	0.009681782357
295	0.009628290965
296	0.009593462997
297	0.009556118414
298	0.00949698802
299	0.009450246732
300	0.009406825888
301	0.009373825154
302	0.009317929727
303	0.009272947909
304	0.009241583214
305	0.009182763068
306	0.009115535489
307	0.009068908238
308	0.009025980297
309	0.008967466982
310	0.008913936193
311	0.008870924845
312	0.00883745138
313	0.008794518724
314	0.008749769123
315	0.008713446967
316	0.008661118841
317	0.008624112178
318	0.008587199748
319	0.008548050169
320	0.008495751386
321	0.008468924381
322	0.008426709022
323	0.008382905953
324	0.008340405057
325	0.008294836901
326	0.008264841147
327	0.008222738276
328	0.008183149152
329	0.008149961353
330	0.008111221109
331	0.008073623784
332	0.008034710995
333	0.007991941739
334	0.007970563643
335	0.007931545767
336	0.007885926685
337	0.007851649215
338	0.007828796424
339	0.007781133184
340	0.007739244012
341	0.007701652765
342	0.007661782241
343	0.007632178507
344	0.007594438697
345	0.007533430387
346	0.00750243647
347	0.007471612252
348	0.007450355272
349	0.007414340156
350	0.007373606164
351	0.007345459072
352	0.007322644385
353	0.007278656657
354	0.007248205944
355	0.007214966322
356	0.007187775313
357	0.007155595846
358	0.007129572009
359	0.007098478046
360	0.007071436243
361	0.007043212614
362	0.007016882089
363	0.006993868998
364	0.006964255045
365	0.006936690637
366	0.006907072307
367	0.006876770144
368	0.006838061672
369	0.006808596774
370	0.006774746091
371	0.00673606291
372	0.006703089371
373	0.00667886335
374	0.00665367246
375	0.006620434412
376	0.006594175242
377	0.006577440906
378	0.00655862994
379	0.00653492152
380	0.006508365759
381	0.006485709793
382	0.006457988493
383	0.00643665388
384	0.006413179668
385	0.006377619734
386	0.006354143414
387	0.006313363091
388	0.006289928142
389	0.006262916622
390	0.006237956917
391	0.006212091953
392	0.006184683663
393	0.006149975047
394	0.006129684554
395	0.006098504047
396	0.006076958514
397	0.00605661619
398	0.00603432235
399	0.006009530176
400	0.005987766179
401	0.005965684861
402	0.005943611352
403	0.005923051733
404	0.005898116573
405	0.005878823991
406	0.005848929068
407	0.005813704816
408	0.005787607748
409	0.00576938036
410	0.005745993845
411	0.005728799048
412	0.005691238574
413	0.005672240255
414	0.005655846182
415	0.00563847581
416	0.005617176394
417	0.005597003729
418	0.005580010943
419	0.00556461504
420	0.005543164045
421	0.005523178363
422	0.005501078092
423	0.005482727599
424	0.005466472767
425	0.005445049134
426	0.005425949137
427	0.005413829402
428	0.005397025585
429	0.005371220856
430	0.005358149905
431	0.005339643663
432	0.005322907791
433	0.005307418876
434	0.005287933653
435	0.005267640177
436	0.005244516241
437	0.005228305351
438	0.005215446942
439	0.005194607357
440	0.005176978131
441	0.005162358598
442	0.005147029139
443	0.005133311472
444	0.005110076447
445	0.005100188866
446	0.005085293323
447	0.005069880576
448	0.005049240344
449	0.005031948046
450	0.005015557379
451	0.004997282171
452	0.004980287128
453	0.004962506583
454	0.004947338257
455	0.004933317561
456	0.004918147293
457	0.004904788301
458	0.004888362484
459	0.004876914042
460	0.004861834266
461	0.004849839039
462	0.004837858759
463	0.004816485403
464	0.004803592246
465	0.004790822678
466	0.004779306079
467	0.004765781905
468	0.004752053434
469	0.004734637796
470	0.004715811834
471	0.004694950043
472	0.004681073181
473	0.004664648108
474	0.004652391972
475	0.004643231433
476	0.004630761403
477	0.004610995657
478	0.004598888168
479	0.00458921064
480	0.004570070217
481	0.004551735989
482	0.004537803745
483	0.004525675192
484	0.004513928056
485	0.004502718253
486	0.004493275297
487	0.004480747544
488	0.004465630588
489	0.004453017447
490	0.00443679972
491	0.004424937612
492	0.004411049799
493	0.004397291191
494	0.004380807171
495	0.004366484527
496	0.004352535361
497	0.004342891823
498	0.004331428
499	0.004318900447
500	0.004306893067
501	0.004295503688
502	0.00428606829
503	0.004274430688
504	0.00425980243
505	0.004250735969
506	0.004238101406
507	0.00422779003
508	0.004215664646
509	0.004202312854
510	0.004192180998
511	0.004182434819
512	0.004170746355
513	0.004160807281
514	0.004152012062
515	0.004140352218
516	0.00412750471
517	0.00411540004
518	0.004105619608
519	0.004091498749
520	0.004076812027
521	0.004067408162
522	0.004056875243
523	0.004049499405
524	0.004042204426
525	0.004029253329
526	0.00401409215
527	0.004004898749
528	0.00399456408
529	0.003982216431
530	0.003974271248
531	0.003962596758
532	0.003952451643
533	0.00394397482
534	0.003932650296
535	0.003923331511
536	0.003912879021
537	0.003904378606
538	0.00389466224
539	0.003885886899
540	0.003872728921
541	0.003861638999
542	0.003850793654
543	0.003841485052
544	0.003834454953
545	0.003826156682
546	0.003813498946
547	0.003807373132
548	0.003797393929
549	0.00378680028
550	0.003779391762
551	0.003766671411
552	0.003756007602
553	0.003748908541
554	0.003738890284
555	0.003729445068
556	0.003720051188
557	0.003707473664
558	0.003700947104
559	0.003689265452
560	0.00367962039
561	0.003668975142
562	0.003661054996
563	0.003652184416
564	0.003642922448
565	0.003635021628
566	0.003627344927
567	0.00361967537
568	0.003611863649
569	0.003603630002
570	0.003594734764
571	0.003586889923
572	0.003579496916
573	0.003568238649
574	0.003560405503
575	0.00355250182
576	0.003541985222
577	0.003534477073
578	0.003526853044
579	0.003519736547
580	0.003509479765
581	0.003497773089
582	0.003490066352
583	0.00348281908
584	0.003475828952
585	0.003463824346
586	0.003453885263
587	0.003444511012
588	0.003434881619
589	0.003429525213
590	0.003421139664
591	0.00341208842
592	0.003403713411
593	0.003394078499
594	0.003385932387
595	0.003381042411
596	0.003372370477
597	0.00336335179
598	0.003357452133
599	0.003350718807
600	0.003344572743
601	0.00333582242
602	0.003326526132
603	0.003319383471
604	0.003311674661
605	0.003305065284
606	0.003300052212
607	0.003289869888
608	0.003281853929
609	0.003272753823
610	0.003266529761
611	0.003258403923
612	0.003252827347
613	0.003245293792
614	0.003240048659
615	0.003230807734
616	0.003223915482
617	0.003214046735
618	0.003209350051
619	0.003199908418
620	0.003190676691
621	0.003183429138
622	0.003176567248
623	0.003169466201
624	0.003162292451
625	0.003155517855
626	0.003150794646
627	0.003144826517
628	0.003137786067
629	0.003131291148
630	0.003126958219
631	0.003119889571
632	0.003110840914
633	0.003103897602
634	0.003098826972
635	0.003091728017
636	0.003085196185
637	0.003076858549
638	0.003070330318
639	0.003063503579
640	0.00305916836
641	0.003054024662
642	0.003046248874
643	0.00304093138
644	0.003034875344
645	0.003028668575
646	0.003023014174
647	0.003017166395
648	0.003011733858
649	0.003004783784
650	0.002997068326
651	0.002989319411
652	0.00298070167
653	0.002972976293
654	0.002965444534
655	0.002957684466
656	0.002950017805
657	0.002942486541
658	0.002937831774
659	0.00293246094
660	0.002926634793
661	0.002923179833
662	0.002916871111
663	0.002909324311
664	0.0029045015
665	0.00289836929
666	0.002890877503
667	0.002884627424
668	0.002878237838
669	0.002871965284
670	0.002865391727
671	0.002859284511
672	0.002854445635
673	0.002850098228
674	0.002842404696
675	0.002838235314
676	0.002833068383
677	0.002828067904
678	0.002818973243
679	0.002814130002
680	0.002806532821
681	0.002801765461
682	0.002795732525
683	0.002788810217
684	0.002782583474
685	0.002777906701
686	0.002772787807
687	0.002766979416
688	0.0027600353
689	0.002754085453
690	0.002749290009
691	0.002744865663
692	0.002740222887
693	0.002735446241
694	0.002730118716
695	0.002726280508
696	0.002721419713
697	0.002714810986
698	0.002710023901
699	0.002705382706
700	0.002701222886
701	0.00269597658
702	0.002690293867
703	0.002684785775
704	0.002679746656
705	0.002674712873
706	0.002670050032
707	0.002665611351
708	0.002661264842
709	0.002656779031
710	0.002651478997
711	0.002646549624
712	0.002640372684
713	0.002636476189
714	0.002631743772
715	0.002627631818
716	0.002623244141
717	0.002619899995
718	0.0026166205
719	0.002611589029
720	0.002605782673
721	0.00260095938
722	0.002595983814
723	0.002591273462
724	0.002586823485
725	0.002581595982
726	0.002577181777
727	0.002572410349
728	0.002566326329
729	0.002560923481
730	0.002554429052
731	0.002549893116
732	0.002545550526
733	0.002541008287
734	0.002538092706
735	0.002534745428
736	0.002531466657
737	0.002528074893
738	0.002522917716
739	0.002518095436
740	0.002514198395
741	0.002510777688
742	0.002505791845
743	0.002499707992
744	0.002495858304
745	0.002491893336
746	0.002488125504
747	0.002484234949
748	0.002478627721
749	0.002474762593
750	0.002472013528
751	0.002469276848
752	0.002465522972
753	0.002460699984
754	0.002457438149
755	0.002453636306
756	0.00244973766
757	0.002445185733
758	0.002439374112
759	0.002435780271
760	0.002431859434
761	0.002428057603
762	0.002423663982
763	0.002418630396
764	0.002413690446
765	0.002410415821
766	0.002406779615
767	0.002402089165
768	0.002397340659
769	0.002391668541
770	0.00238674728
771	0.002383014936
772	0.002378994615
773	0.002374546199
774	0.002368019986
775	0.002364944467
776	0.002362165441
777	0.002358009658
778	0.002355099027
779	0.002351660611
780	0.002349102077
781	0.002344974461
782	0.002341959889
783	0.002337187269
784	0.002333989615
785	0.002329739618
786	0.002326199528
787	0.00232268518
788	0.002319168556
789	0.002314905067
790	0.002311315643
791	0.002307098591
792	0.002303743675
793	0.00230145186
794	0.002297903064
795	0.002293555318
796	0.002289708542
797	0.002285364701
798	0.002282374212
799	0.002278981936
800	0.002275432033
801	0.002271075795
802	0.002266843551
803	0.00226251028
804	0.002258975284
805	0.002256176203
806	0.002252342384
807	0.002249809079
808	0.002247409842
809	0.002243934447
810	0.002240961805
811	0.002236613031
812	0.002233700249
813	0.002230633138
814	0.002228008126
815	0.002224002093
816	0.002220725914
817	0.002218275033
818	0.002214508878
819	0.002210822931
820	0.002208871726
821	0.002204776301
822	0.002200762075
823	0.002197606955
824	0.002193598555
825	0.002190593211
826	0.002186524014
827	0.002183444721
828	0.002180461278
829	0.00217862255
830	0.002175643581
831	0.002172457827
832	0.002169743818
833	0.002166613511
834	0.002163251772
835	0.002160684299
836	0.002157605883
837	0.002153599681
838	0.00215036351
839	0.002146826143
840	0.002143904576
841	0.002139835755
842	0.002137264517
843	0.002134590266
844	0.002131661427
845	0.002128823655
846	0.00212529805
847	0.00212276292
848	0.002119071594
849	0.002115601776
850	0.002112857076
851	0.002109421698
852	0.002107003159
853	0.002104358275
854	0.002101721578
855	0.002098047184
856	0.002095653454
857	0.002093320171
858	0.002090332634
859	0.00208701607
860	0.002085142622
861	0.002081399215
862	0.002077984307
863	0.002075735669
864	0.002072282321
865	0.002070218536
866	0.002067230494
867	0.002063358045
868	0.002059608056
869	0.002056520609
870	0.002053459965
871	0.002051175367
872	0.002048424549
873	0.002045598816
874	0.002042539129
875	0.002039172754
876	0.002036062951
877	0.002033279448
878	0.002030765892
879	0.002027904973
880	0.002023912983
881	0.002020972214
882	0.002017977146
883	0.002015182962
884	0.002012372405
885	0.002010657617
886	0.0020081345
887	0.002005480054
888	0.002003074269
889	0.002000951563
890	0.001997978236
891	0.001995508874
892	0.001992514797
893	0.001989950537
894	0.001986803533
895	0.001983890051
896	0.001980643863
897	0.001977475882
898	0.001974240561
899	0.001969703281
900	0.00196739044
901	0.001964149736
902	0.00196117983
903	0.001958219529
904	0.001955651191
905	0.001953264943
906	0.001951125875
907	0.001948644612
908	0.001945800241
909	0.001942934939
910	0.001939182277
911	0.001937402725
912	0.001934840892
913	0.00193238475
914	0.001930159058
915	0.00192768807
916	0.00192587928
917	0.001922255632
918	0.001919836046
919	0.001917771641
920	0.001915902992
921	0.001913947938
922	0.001911923978
923	0.001909115591
924	0.001906574889
925	0.001903222352
926	0.001900616822
927	0.001898453693
928	0.001895804176
929	0.00189304164
930	0.001890520684
931	0.00188721012
932	0.00188482312
933	0.001882607759
934	0.001879449158
935	0.001877414438
936	0.001875906129
937	0.001874107993
938	0.001871896686
939	0.001869167609
940	0.001866848716
941	0.001862902406
942	0.001859775501
943	0.001858275669
944	0.001855951147
945	0.001852880324
946	0.001850706459
947	0.00184663192
948	0.001844081406
949	0.00184255322
950	0.001839762079
951	0.001838007975
952	0.001835934355
953	0.001833178432
954	0.001830500717
955	0.001828553387
956	0.001826084851
957	0.001824117832
958	0.001822441966
959	0.001819907912
960	0.001817348238
961	0.001814224427
962	0.001812007792
963	0.001809702672
964	0.001807998491
965	0.001804899419
966	0.001802078813
967	0.001799989174
968	0.00179758835
969	0.001795354815
970	0.001793359043
971	0.001791500109
972	0.001789730791
973	0.001787568198
974	0.001785183614
975	0.001783473678
976	0.001781001313
977	0.001778315792
978	0.001775962022
979	0.001773684742
980	0.001771457401
981	0.001769230289
982	0.001767004254
983	0.001765309291
984	0.001761642352
985	0.001760235727
986	0.00175741773
987	0.001754857356
988	0.001752811559
989	0.001751261172
990	0.001748365808
991	0.0017464328
992	0.001744690388
993	0.001742119481
994	0.001740447854
995	0.001737936952
996	0.001736016066
997	0.001734135337
998	0.0017319807
999	0.001730302641
1000	0.001728326141
1001	0.001726062519
1002	0.001723433655
1003	0.001722107007
1004	0.001719414049
1005	0.001717573931
1006	0.001714159953
1007	0.001712157313
1008	0.001710892221
1009	0.001709042426
1010	0.001707483346
1011	0.001705216568
1012	0.001703157157
1013	0.001701918897
1014	0.001700298999
1015	0.001698418952
1016	0.001696586861
1017	0.001695014951
1018	0.001693076886
1019	0.001691366894
1020	0.001688567822
1021	0.001686069859
1022	0.001683845039
1023	0.001681684071
1024	0.001679747342
1025	0.001677260068
1026	0.001674689291
1027	0.001672490096
1028	0.001670480223
1029	0.001668920249
1030	0.001667107658
1031	0.001665870493
1032	0.001663562487
1033	0.001661669405
1034	0.001660234853
1035	0.001658810721
1036	0.001657163825
1037	0.001655612108
1038	0.001653243237
1039	0.001651027983
1040	0.001648762096
1041	0.001646538442
1042	0.001644467373
1043	0.001642202298
1044	0.001640585518
1045	0.001638330079
1046	0.001636625108
1047	0.001633898785
1048	0.001632306651
1049	0.001630475358
1050	0.001628283801
1051	0.001626277201
1052	0.001624454576
1053	0.001623311883
1054	0.001621509201
1055	0.00161955612
1056	0.001617082587
1057	0.001615308101
1058	0.001613433481
1059	0.001611254348
1060	0.001609453982
1061	0.00160723128
1062	0.001604895498
1063	0.001602952107
1064	0.001600387122
1065	0.001598753284
1066	0.001597178974
1067	0.001594630544
1068	0.001592546411
1069	0.001591418364
1070	0.001589886213
1071	0.001587574819
1072	0.001585410204
1073	0.001583659355
1074	0.001582019756
1075	0.001579764029
1076	0.001578275956
1077	0.00157656675
1078	0.001574731808
1079	0.0015727952
1080	0.001570827587
1081	0.001568694241
1082	0.00156731077
1083	0.001565051793
1084	0.001562933297
1085	0.001560872122
1086	0.001558791463
1087	0.001556502613
1088	0.001554869503
1089	0.001553421349
1090	0.001551771392
1091	0.00155007142
1092	0.001548333677
1093	0.001546290858
1094	0.001544330402
1095	0.0015423286
1096	0.001541269914
1097	0.001539913817
1098	0.001538348429
1099	0.001536800428
1100	0.001535235457
1101	0.001533896118
1102	0.00153189084
1103	0.001530834747
1104	0.001529519512
1105	0.001528018884
1106	0.001526305266
1107	0.001524397665
1108	0.00152259702
1109	0.001520858243
1110	0.001519337629
1111	0.001517272316
1112	0.001515627334
1113	0.001514058875
1114	0.001512491956
1115	0.001511292397
1116	0.00150907839
1117	0.001507379765
1118	0.001505401408
1119	0.001504016385
1120	0.001501977776
1121	0.001500243288
1122	0.001498414355
1123	0.001496930887
1124	0.00149567968
1125	0.001493731198
1126	0.001491871921
1127	0.001490135224
1128	0.00148861849
1129	0.001486917421
1130	0.001485683016
1131	0.001483664367
1132	0.001482392708
1133	0.001480786474
1134	0.001479256748
1135	0.001478120694
1136	0.001476314406
1137	0.001474964166
1138	0.001473803547
1139	0.001472001341
1140	0.00147031787
1141	0.001469090748
1142	0.001467964507
1143	0.001466578193
1144	0.001465183776
1145	0.001464214189
1146	0.001462750718
1147	0.001460978727
1148	0.001459530882
1149	0.001458250341
1150	0.00145645168
1151	0.001455274133
1152	0.001453729137
1153	0.001452787035
1154	0.001451309654
1155	0.001449663718
1156	0.001447993336
1157	0.001446426326
1158	0.001444998117
1159	0.001443782782
1160	0.001442639619
1161	0.001441480742
1162	0.001439703946
1163	0.001438111633
1164	0.00143661536
1165	0.001434960399
1166	0.001433721092
1167	0.001432049271
1168	0.001431138286
1169	0.001429889523
1170	0.001428188069
1171	0.001427114341
1172	0.001426217229
1173	0.001424601093
1174	0.001423426215
1175	0.001421730466
1176	0.001420308562
1177	0.001419235164
1178	0.001418347214
1179	0.001416684982
1180	0.001415269502
1181	0.001414023556
1182	0.001412953912
1183	0.001411753574
1184	0.00141042325
1185	0.001408067945
1186	0.001406430461
1187	0.001405414943
1188	0.001404019484
1189	0.00140263005
1190	0.001401650142
1191	0.001400445704
1192	0.001399064589
1193	0.001397431775
1194	0.001396532472
1195	0.001394858341
1196	0.001393165084
1197	0.001392143089
1198	0.001390646734
1199	0.00138967998
1200	0.001388072368
1201	0.001386042428
1202	0.001384695604
1203	0.001383211947
1204	0.0013820194
1205	0.001380164767
1206	0.001379072241
1207	0.001378048355
1208	0.001376748057
1209	0.001375396552
1210	0.001374034747
1211	0.001372612966
1212	0.001371066563
1213	0.001369236894
1214	0.001367385391
1215	0.001366226823
1216	0.001364896802
1217	0.001363135902
1218	0.001362040724
1219	0.001360463593
1220	0.001358994554
1221	0.001357967287
1222	0.001356382956
1223	0.001355000433
1224	0.001353787238
1225	0.001352597228
1226	0.001351214365
1227	0.001350261123
1228	0.001348631372
1229	0.001347256674
1230	0.001346014334
1231	0.001344555816
1232	0.001343359248
1233	0.001342188634
1234	0.001340641159
1235	0.001339162179
1236	0.001338017435
1237	0.001336397428
1238	0.001335338166
1239	0.001334133041
1240	0.001333117213
1241	0.001332202621
1242	0.001331151473
1243	0.001329701512
1244	0.001328387333
1245	0.001327003544
1246	0.001325943384
1247	0.001324473416
1248	0.0013233021
1249	0.001321846328
1250	0.001320629163
1251	0.001319857056
1252	0.001318297418
1253	0.001317160044
1254	0.001315825718
1255	0.001314491178
1256	0.00131322551
1257	0.001312195057
1258	0.001310986836
1259	0.001310168839
1260	0.001309049598
1261	0.001308053835
1262	0.001306510701
1263	0.001305395006
1264	0.001304293066
1265	0.001302734051
1266	0.001301078828
1267	0.00129995453
1268	0.001299229523
1269	0.001298472529
1270	0.001297725729
1271	0.001296278404
1272	0.001294966536
1273	0.001294188736
1274	0.001293098807
1275	0.001291910727
1276	0.001290492807
1277	0.001289536475
1278	0.001288735559
1279	0.00128767805
1280	0.001286436098
1281	0.001285454494
1282	0.001284436394
1283	0.001283719532
1284	0.001282681598
1285	0.001281775655
1286	0.001280600087
1287	0.001279500131
1288	0.0012785305
1289	0.001277225994
1290	0.001276254194
1291	0.001275280276
1292	0.0012738822
1293	0.00127320791
1294	0.0012720004
1295	0.001270802668
1296	0.00126958166
1297	0.001268410277
1298	0.001267400006
1299	0.001266634595
1300	0.001265925794
1301	0.001264989987
1302	0.001263860293
1303	0.001262974422
1304	0.001261996951
1305	0.001261268276
1306	0.001260194703
1307	0.001259188807
1308	0.001258172105
1309	0.001257090214
1310	0.001255787436
1311	0.001254399952
1312	0.001252909508
1313	0.001251902565
1314	0.001250559479
1315	0.00124939913
1316	0.001247882383
1317	0.001246447097
1318	0.001245182018
1319	0.001244284083
1320	0.001243369834
1321	0.00124208183
1322	0.001241268398
1323	0.001240226186
1324	0.001239242497
1325	0.001238404817
1326	0.001237457821
1327	0.001236557907
1328	0.001235653422
1329	0.001234547032
1330	0.001233576549
1331	0.001232565028
1332	0.001231408876
1333	0.00123042314
1334	0.001229350833
1335	0.001228172328
1336	0.001227281123
1337	0.001226412875
1338	0.001225189954
1339	0.001224025892
1340	0.001222979559
1341	0.001222226235
1342	0.001221316711
1343	0.001220333881
1344	0.001219112502
1345	0.001218435152
1346	0.001217319376
1347	0.001216055674
1348	0.001215098233
1349	0.001214102544
1350	0.001212765225
1351	0.001211876585
1352	0.001210953628
1353	0.001209919518
1354	0.001208669343
1355	0.001207750466
1356	0.001206872076
1357	0.001205942815
1358	0.001204700707
1359	0.001203301198
1360	0.001201952648
1361	0.001200957424
1362	0.001199888361
1363	0.001198602768
1364	0.001197421553
1365	0.001196422043
1366	0.00119554146
1367	0.001194562059
1368	0.001193474243
1369	0.001192695656
1370	0.001191395027
1371	0.001190599488
1372	0.001189585598
1373	0.001188679068
1374	0.001187654342
1375	0.001186740771
1376	0.001185424992
1377	0.001184497353
1378	0.001183598798
1379	0.001182442266
1380	0.001181513552
1381	0.001180503385
1382	0.001179652142
1383	0.001178984159
1384	0.001177940935
1385	0.001177020377
1386	0.001175967932
1387	0.001175203179
1388	0.001174049057
1389	0.001172807834
1390	0.001171619414
1391	0.001170727609
1392	0.001169717234
1393	0.001168332546
1394	0.001167471776
1395	0.00116667204
1396	0.001165958494
1397	0.001165148644
1398	0.001164241137
1399	0.001163544705
1400	0.001162280027
1401	0.001161107992
1402	0.00116021315
1403	0.001159379533
1404	0.001158548341
1405	0.001157403076
1406	0.001156584975
1407	0.001155465271
1408	0.001154615836
1409	0.001153783803
1410	0.001152679932
1411	0.001151870919
1412	0.001150834629
1413	0.001149799976
1414	0.00114893277
1415	0.001147568167
1416	0.001147015712
1417	0.001145835453
1418	0.001144886084
1419	0.001143980387
1420	0.00114338257
1421	0.001142350161
1422	0.001141402357
1423	0.001140264555
1424	0.001139163972
1425	0.001138578758
1426	0.001137529914
1427	0.001136589594
1428	0.001135977394
1429	0.001134435946
1430	0.001133547861
1431	0.001132864918
1432	0.001131920604
1433	0.001130910335
1434	0.001130165913
1435	0.001129135361
1436	0.001128449823
1437	0.001127290856
1438	0.001126371342
1439	0.001125350757
1440	0.001124469847
1441	0.001123480751
1442	0.001122671591
1443	0.001121677839
1444	0.001121116804
1445	0.001120629595
1446	0.001119627334
1447	0.001119026771
1448	0.001118170976
1449	0.001117328436
1450	0.001116303893
1451	0.001115517247
1452	0.001114442894
1453	0.001113235151
1454	0.001112377838
1455	0.001111764281
1456	0.001110771788
1457	0.001110084454
1458	0.001109019531
1459	0.001107997875
1460	0.001107449912
1461	0.001106747377
1462	0.001105853892
1463	0.001105138443
1464	0.001104287486
1465	0.001103383631
1466	0.001102466227
1467	0.001101524949
1468	0.001101055965
1469	0.001099874884
1470	0.001099117223
1471	0.001098305091
1472	0.001097572129
1473	0.001096839776
1474	0.001095987419
1475	0.001095024547
1476	0.001094505197
1477	0.001093951611
1478	0.001092815664
1479	0.001091783572
1480	0.001091139885
1481	0.001090504472
1482	0.001089837524
1483	0.001088759297
1484	0.00108773673
1485	0.001087093837
1486	0.001086556539
1487	0.001086011764
1488	0.001085164975
1489	0.001084162803
1490	0.001083567798
1491	0.001082629796
1492	0.001081706632
1493	0.001080773626
1494	0.001079842712
1495	0.00107910588
1496	0.001078352695
1497	0.00107752356
1498	0.001076676842
1499	0.001075758893
1500	0.001074810162
1501	0.001073878714
1502	0.001073376132
1503	0.001072874844
1504	0.001072207268
1505	0.001071448392
1506	0.001070333149
1507	0.001069344697
1508	0.00106840471
1509	0.001067951414
1510	0.001066994271
1511	0.001066347668
1512	0.001065763417
1513	0.0010652644
1514	0.001063984101
1515	0.00106326305
1516	0.001062446539
1517	0.001061702562
1518	0.001060863309
1519	0.001059999981
1520	0.001059108386
1521	0.001058374681
1522	0.00105768923
1523	0.001056945799
1524	0.001055825209
1525	0.001054845297
1526	0.001054182646
1527	0.001053708292
1528	0.001052476294
1529	0.001051531616
1530	0.001050753633
1531	0.001049983466
1532	0.001048800417
1533	0.001048034659
1534	0.001047500679
1535	0.00104697633
1536	0.001046360081
1537	0.001045559243
1538	0.001044973577
1539	0.001044246846
1540	0.00104354643
1541	0.001042751416
1542	0.001041686508
1543	0.001041190563
1544	0.001040837868
1545	0.001039899696
1546	0.001039171338
1547	0.001038261026
1548	0.001037576917
1549	0.001036924678
1550	0.001036268898
1551	0.001035567158
1552	0.001034807499
1553	0.001034153466
1554	0.001033350095
1555	0.001032709565
1556	0.001031756762
1557	0.001031163576
1558	0.001030436804
1559	0.001029948384
1560	0.001029198588
1561	0.001028197911
1562	0.001027576527
1563	0.001026864575
1564	0.001025661923
1565	0.001024541343
1566	0.001023707008
1567	0.001022594935
1568	0.001021588271
1569	0.001020605407
1570	0.00102001376
1571	0.001019465702
1572	0.001018691955
1573	0.001017796183
1574	0.001016910619
1575	0.001016157086
1576	0.001015110466
1577	0.001014514342
1578	0.00101365512
1579	0.001013085687
1580	0.001012326885
1581	0.001011406256
1582	0.001010754126
1583	0.00101003284
1584	0.001008945658
1585	0.001008382589
1586	0.001007701877
1587	0.001007111986
1588	0.001006289914
1589	0.001005689453
1590	0.001005079025
1591	0.001004579863
1592	0.001004007376
1593	0.001003128983
1594	0.00100242898
1595	0.001001929087
1596	0.001001242606
1597	0.001000381265
1598	0.000999539572
1599	0.0009986940365
1600	0.0009980423077
1601	0.0009972169585
1602	0.0009966355547
1603	0.0009957969469
1604	0.0009949701474
1605	0.0009943876769
1606	0.000993857846
1607	0.0009927411268
1608	0.000992364361
1609	0.0009915047578
1610	0.0009909343139
1611	0.0009903217959
1612	0.0009894470483
1613	0.000988820974
1614	0.0009881818977
1615	0.0009873927487
1616	0.0009867555688
1617	0.000986037456
1618	0.000985176744
1619	0.0009844760743
1620	0.0009836525598
1621	0.0009828524326
1622	0.0009820688043
1623	0.0009814380464
1624	0.0009806978417
1625	0.0009800001106
1626	0.0009796042516
1627	0.0009788892621
1628	0.0009783836089
1629	0.0009778851283
1630	0.0009769448104
1631	0.0009762654102
1632	0.0009758067457
1633	0.0009750672842
1634	0.0009742923966
1635	0.0009734218196
1636	0.0009726622575
1637	0.0009720416323
1638	0.0009712315844
1639	0.0009706138057
1640	0.000969969645
1641	0.0009692599974
1642	0.000968511822
1643	0.0009677256404
1644	0.0009671549084
1645	0.0009664535121
1646	0.0009658086863
1647	0.0009650168905
1648	0.0009646020811
1649	0.0009640387589
1650	0.0009633871836
1651	0.0009627055886
1652	0.0009620923633
1653	0.00096169169
1654	0.0009612004267
1655	0.0009604527586
1656	0.0009597934944
1657	0.0009591434663
1658	0.0009585311118
1659	0.0009575763363
1660	0.0009570712858
1661	0.0009565143752
1662	0.0009561267902
1663	0.0009554311586
1664	0.0009548413126
1665	0.0009541668603
1666	0.0009533867541
1667	0.0009529413604
1668	0.0009523475222
1669	0.0009517277455
1670	0.0009511169874
1671	0.0009507257954
1672	0.000950200159
1673	0.000949638102
1674	0.0009492121574
1675	0.0009488296469
1676	0.0009482537204
1677	0.0009478362005
1678	0.0009472284988
1679	0.0009465371113
1680	0.0009460561761
1681	0.0009456260126
1682	0.0009450855563
1683	0.0009443296766
1684	0.0009437061685
1685	0.0009431178189
1686	0.0009425385952
1687	0.0009420269391
1688	0.0009413045086
1689	0.0009406675406
1690	0.0009401455759
1691	0.0009396053452
1692	0.0009390292623
1693	0.0009379994465
1694	0.000937443268
1695	0.0009367153289
1696	0.0009360683954
1697	0.0009354022792
1698	0.0009347054605
1699	0.0009339995988
1700	0.0009334330611
1701	0.000932669714
1702	0.0009320922044
1703	0.0009315321487
1704	0.0009310130337
1705	0.0009305215382
1706	0.0009300839109
1707	0.0009293056303
1708	0.000928366188
1709	0.00092780126
1710	0.0009271557612
1711	0.0009263906164
1712	0.0009258196881
1713	0.0009251674572
1714	0.0009246044772
1715	0.0009238436229
1716	0.0009232734168
1717	0.0009227704832
1718	0.0009222181507
1719	0.0009215792584
1720	0.0009205665354
1721	0.0009201775166
1722	0.0009194823696
1723	0.0009188873636
1724	0.000918261831
1725	0.0009177289809
1726	0.0009170663535
1727	0.0009163634159
1728	0.0009159706299
1729	0.0009153216446
1730	0.0009146881211
1731	0.0009140324242
1732	0.0009136695397
1733	0.0009131100596
1734	0.0009126664033
1735	0.0009120495012
1736	0.0009112961629
1737	0.0009108573032
1738	0.0009103648057
1739	0.0009098101959
1740	0.0009090793297
1741	0.0009085281
1742	0.0009078448691
1743	0.0009073211288
1744	0.0009069327545
1745	0.0009060392921
1746	0.0009054264398
1747	0.0009047528147
1748	0.0009041804651
1749	0.0009035570045
1750	0.0009032010336
1751	0.0009025912273
1752	0.0009019862476
1753	0.0009014121822
1754	0.000900929437
1755	0.0009003319183
1756	0.0008999160942
1757	0.0008994178181
1758	0.0008988024785
1759	0.0008982914151
1760	0.0008977694919
1761	0.0008972553827
1762	0.0008967238662
1763	0.0008959309204
1764	0.0008951463466
1765	0.0008946442093
1766	0.000893915362
1767	0.0008933346576
1768	0.0008927985833
1769	0.0008922800822
1770	0.0008917043017
1771	0.000891066061
1772	0.0008906151582
1773	0.0008900678498
1774	0.000889688415
1775	0.0008888927687
1776	0.0008884462343
1777	0.0008877611603
1778	0.0008871077657
1779	0.0008866603226
1780	0.0008860922139
1781	0.0008856021187
1782	0.0008848321676
1783	0.000884384824
1784	0.0008839092028
1785	0.0008829903357
1786	0.0008824224488
1787	0.0008820855838
1788	0.0008814081846
1789	0.0008809454816
1790	0.0008804442364
1791	0.0008801066381
1792	0.0008795095625
1793	0.0008791109388
1794	0.0008786094829
1795	0.0008781845317
1796	0.0008776734321
1797	0.0008768907328
1798	0.0008762893449
1799	0.0008756733858
1800	0.0008751016096
1801	0.000874687216
1802	0.0008741802544
1803	0.0008734467381
1804	0.0008728262892
1805	0.0008723671097
1806	0.0008718494597
1807	0.0008713424121
1808	0.0008709231944
1809	0.0008703585183
1810	0.0008699065737
1811	0.0008693618677
1812	0.0008687383564
1813	0.0008682735249
1814	0.000867890939
1815	0.0008673372045
1816	0.0008667195037
1817	0.0008662548749
1818	0.0008656779225
1819	0.0008650491788
1820	0.0008645225812
1821	0.0008640203341
1822	0.000863361657
1823	0.0008627073025
1824	0.0008622622511
1825	0.0008615676847
1826	0.0008609388985
1827	0.0008603303159
1828	0.0008598226455
1829	0.000859209768
1830	0.0008587791806
1831	0.0008581815277
1832	0.0008576604599
1833	0.0008573369845
1834	0.0008566225102
1835	0.0008560153143
1836	0.0008554683556
1837	0.0008550436502
1838	0.0008544148849
1839	0.00085402002
1840	0.0008533453273
1841	0.0008525478039
1842	0.0008520732423
1843	0.0008517405532
1844	0.0008511178146
1845	0.0008506563311
1846	0.0008501942476
1847	0.0008495806983
1848	0.0008488314588
1849	0.0008484082588
1850	0.0008477794538
1851	0.0008473007832
1852	0.0008466534067
1853	0.0008462769135
1854	0.00084559567
1855	0.0008449800942
1856	0.0008445336518
1857	0.0008439102976
1858	0.0008433326166
1859	0.0008429681969
1860	0.0008425082615
1861	0.0008419045639
1862	0.0008414554933
1863	0.0008409493236
1864	0.0008405298076
1865	0.0008399397063
1866	0.0008395382081
1867	0.0008391294206
1868	0.0008385180256
1869	0.0008379542602
1870	0.0008374205714
1871	0.0008369527016
1872	0.0008364465075
1873	0.0008359337833
1874	0.0008355706912
1875	0.0008352571487
1876	0.0008348563715
1877	0.0008344713611
1878	0.0008339667315
1879	0.0008335420769
1880	0.0008329813811
1881	0.0008326277209
1882	0.0008322445894
1883	0.0008317743317
1884	0.0008313201809
1885	0.0008305592441
1886	0.0008299141951
1887	0.0008295570899
1888	0.0008291037014
1889	0.0008286004952
1890	0.0008280795245
1891	0.0008275702668
1892	0.0008272428632
1893	0.000826648781
1894	0.0008262615327
1895	0.0008258091409
1896	0.0008254326772
1897	0.0008249543399
1898	0.0008246026909
1899	0.0008239672761
1900	0.000823395393
1901	0.000822832488
1902	0.0008223127024
1903	0.0008218991259
1904	0.0008213304144
1905	0.0008209029321
1906	0.0008203006973
1907	0.000819754785
1908	0.0008193544133
1909	0.0008189841389
1910	0.0008185571607
1911	0.0008182642827
1912	0.000817866568
1913	0.0008173573923
1914	0.0008169711332
1915	0.0008163881984
1916	0.0008157937928
1917	0.000815423402
1918	0.0008151611773
1919	0.0008145512532
1920	0.0008140991036
1921	0.0008136355118
1922	0.0008131432393
1923	0.0008126372183
1924	0.000812209162
1925	0.0008117076042
1926	0.0008111239014
1927	0.000810542589
1928	0.000810109039
1929	0.0008095692704
1930	0.0008091913818
1931	0.0008086775321
1932	0.0008083495545
1933	0.0008078797314
1934	0.0008073244068
1935	0.000807043396
1936	0.0008067597795
1937	0.0008064270753
1938	0.0008059279468
1939	0.0008052699861
1940	0.0008048969424
1941	0.0008046150518
1942	0.0008041073481
1943	0.000803427669
1944	0.0008029752057
1945	0.0008023255059
1946	0.0008019243522
1947	0.000801596754
1948	0.0008012410417
1949	0.0008008543545
1950	0.000800435146
1951	0.0008000304652
1952	0.000799467313
1953	0.0007990760543
1954	0.0007985126331
1955	0.0007979851331
1956	0.0007974310587
1957	0.000796947009
1958	0.0007965498841
1959	0.0007960363414
1960	0.0007955046733
1961	0.0007950359811
1962	0.0007945839301
1963	0.0007941578939
1964	0.000793573704
1965	0.0007931761656
1966	0.0007926684746
1967	0.0007921045617
1968	0.0007917602095
1969	0.0007913933269
1970	0.0007909927473
1971	0.0007905998644
1972	0.0007901402953
1973	0.0007896080429
1974	0.000789295932
1975	0.0007888329539
1976	0.0007883028932
1977	0.0007879112587
1978	0.000787369189
1979	0.0007868815695
1980	0.000786524504
1981	0.0007859518517
1982	0.0007854865775
1983	0.0007849865067
1984	0.0007845492007
1985	0.0007841007485
1986	0.0007837470341
1987	0.000783235294
1988	0.0007828476645
1989	0.0007825331595
1990	0.0007820383937
1991	0.000781529253
1992	0.0007810304955
1993	0.0007805219785
1994	0.0007801300656
1995	0.0007795990022
1996	0.0007790839805
1997	0.0007785545309
1998	0.0007782223498
1999	0.0007778227797
